real	3m46.410s
user	6m35.108s
sys	0m10.409s

real	3m42.475s
user	6m26.577s
sys	0m10.119s

real	3m39.583s
user	6m24.051s
sys	0m8.825s

real	3m41.547s
user	6m25.001s
sys	0m10.515s

real	3m36.910s
user	6m18.632s
sys	0m8.922s

real	3m50.430s
user	6m42.335s
sys	0m10.917s

real	3m41.766s
user	6m28.183s
sys	0m9.184s

real	3m43.534s
user	6m28.427s
sys	0m10.250s

real	3m47.882s
user	6m40.836s
sys	0m9.114s

real	3m40.861s
user	6m26.195s
sys	0m9.044s
