Tiempo: 0,002950
Tiempo: 0,002992
Tiempo: 0,002928
Tiempo: 0,002867
Tiempo: 0,002949
Tiempo: 0,002950
Tiempo: 0,002939
Tiempo: 0,002942
Tiempo: 0,002972
Tiempo: 0,002980
Tiempo: 0,002939
Tiempo: 0,002974
Tiempo: 0,002965
Tiempo: 0,002924
Tiempo: 0,002999
Tiempo: 0,002897
Tiempo: 0,002997
Tiempo: 0,002931
Tiempo: 0,002887
Tiempo: 0,005744
Tiempo: 0,002945
Tiempo: 0,002910
Tiempo: 0,004240
Tiempo: 0,002918
Tiempo: 0,002977
Tiempo: 0,002974
Tiempo: 0,002921
Tiempo: 0,002951
Tiempo: 0,002957
Tiempo: 0,003061
Tiempo: 0,003432
Tiempo: 0,003627
Tiempo: 0,003287
Tiempo: 0,003545
Tiempo: 0,011342
Tiempo: 0,003496
Tiempo: 0,003667
Tiempo: 0,003435
Tiempo: 0,003438
Tiempo: 0,003689
Tiempo: 0,003233
Tiempo: 0,003519
Tiempo: 0,003473
Tiempo: 0,003376
Tiempo: 0,003428
Tiempo: 0,003762
Tiempo: 0,003378
Tiempo: 0,003308
Tiempo: 0,003403
Tiempo: 0,003590
Tiempo: 0,003487
Tiempo: 0,003424
Tiempo: 0,003467
Tiempo: 0,003364
Tiempo: 0,003522
Tiempo: 0,003397
Tiempo: 0,003570
Tiempo: 0,003373
Tiempo: 0,003325
Tiempo: 0,003503
Tiempo: 0,012437
Tiempo: 0,004902
Tiempo: 0,003635
Tiempo: 0,003824
Tiempo: 0,003678
Tiempo: 0,003732
Tiempo: 0,004286
Tiempo: 0,003814
Tiempo: 0,003776
Tiempo: 0,003898
Tiempo: 0,004452
Tiempo: 0,003851
Tiempo: 0,003528
Tiempo: 0,003514
Tiempo: 0,004337
Tiempo: 0,003605
Tiempo: 0,003536
Tiempo: 0,004496
Tiempo: 0,015313
Tiempo: 0,004643
Tiempo: 0,012674
Tiempo: 0,007578
Tiempo: 0,015830
Tiempo: 0,006622
Tiempo: 0,007742
Tiempo: 0,004014
Tiempo: 0,004011
Tiempo: 0,003811
Tiempo: 0,003467
Tiempo: 0,003776
Tiempo: 0,004441
Tiempo: 0,004227
Tiempo: 0,004456
Tiempo: 0,007243
Tiempo: 0,004618
Tiempo: 0,004133
Tiempo: 0,004734
Tiempo: 0,004921
Tiempo: 0,004812
Tiempo: 0,004265
Tiempo: 0,004706
Tiempo: 0,004795
Tiempo: 0,004170
Tiempo: 0,004287
Tiempo: 0,004752
Tiempo: 0,004614
Tiempo: 0,004003
Tiempo: 0,004154
Tiempo: 0,004160
Tiempo: 0,004284
Tiempo: 0,004351
Tiempo: 0,005207
Tiempo: 0,004264
Tiempo: 0,004173
Tiempo: 0,009851
Tiempo: 0,005896
Tiempo: 0,004516
Tiempo: 0,004382
Tiempo: 0,006341
Tiempo: 0,005667
Tiempo: 0,005182
Tiempo: 0,006951
Tiempo: 0,005444
Tiempo: 0,005282
Tiempo: 0,015559
Tiempo: 0,005074
Tiempo: 0,005835
Tiempo: 0,005336
Tiempo: 0,005155
Tiempo: 0,005613
Tiempo: 0,013591
Tiempo: 0,007929
Tiempo: 0,004946
Tiempo: 0,004941
Tiempo: 0,012940
Tiempo: 0,005781
Tiempo: 0,005203
Tiempo: 0,005991
Tiempo: 0,005264
Tiempo: 0,007760
Tiempo: 0,005328
Tiempo: 0,006188
Tiempo: 0,005628
Tiempo: 0,009074
Tiempo: 0,005435
Tiempo: 0,005124
Tiempo: 0,005432
Tiempo: 0,007340
Tiempo: 0,005852
Tiempo: 0,005022
Tiempo: 0,015769
Tiempo: 0,015433
Tiempo: 0,015729
Tiempo: 0,015726
Tiempo: 0,007674
Tiempo: 0,011575
Tiempo: 0,017944
Tiempo: 0,015766
Tiempo: 0,015340
Tiempo: 0,015282
Tiempo: 0,011391
Tiempo: 0,011910
Tiempo: 0,014939
Tiempo: 0,015503
Tiempo: 0,008098
Tiempo: 0,007155
Tiempo: 0,031318
Tiempo: 0,009293
Tiempo: 0,014757
Tiempo: 0,015662
Tiempo: 0,015226
Tiempo: 0,007674
Tiempo: 0,031204
Tiempo: 0,036395
Tiempo: 0,015303
Tiempo: 0,031042
Tiempo: 0,007123
Tiempo: 0,007690
Tiempo: 0,016222
Tiempo: 0,014747
Tiempo: 0,071875
Tiempo: 0,035215
Tiempo: 0,042989
Tiempo: 0,059029
Tiempo: 0,043972
Tiempo: 0,035309
Tiempo: 0,079371
Tiempo: 0,047212
Tiempo: 0,046376
Tiempo: 0,058771
Tiempo: 0,050980
Tiempo: 0,034925
Tiempo: 0,020375
Tiempo: 0,070403
Tiempo: 0,018683
Tiempo: 0,031772
Tiempo: 0,043656
Tiempo: 0,031002
Tiempo: 0,043785
Tiempo: 0,082833
Tiempo: 0,077285
Tiempo: 0,017559
Tiempo: 0,071508
Tiempo: 0,082988
Tiempo: 0,045998
Tiempo: 0,043290
Tiempo: 0,031838
Tiempo: 0,035657
Tiempo: 0,085007
Tiempo: 0,047870
